Tidyverse Tidyr Package | Minimal, Meaningful, Mindful Sikai
…
let’s look at an example of messy data: Although the following data satisfies three kep points we mentioned before, we could change our perspectives to better understand it.

Pivot

Among all definitions of pivot, I preferred that one given by Merriam-Webster.

To adapt or improve by adjusting or modifying something (such as a product, service, or strategy)

The pivot here is an action of improve whatever you turn left or right. That’s why we’ve got data pivoting. Data pivoting enables you to rearrange the columns and rows in a data so you can view it from different perspectives to get a better sense of it.

Pivot data from long to wide

us_rent_income

## # A tibble: 104 × 5
##    GEOID NAME       variable estimate   moe
##    <chr> <chr>      <chr>       <dbl> <dbl>
##  1 01    Alabama    income      24476   136
##  2 01    Alabama    rent          747     3
##  3 02    Alaska     income      32940   508
##  4 02    Alaska     rent         1200    13
##  5 04    Arizona    income      27517   148
##  6 04    Arizona    rent          972     4
##  7 05    Arkansas   income      23789   165
##  8 05    Arkansas   rent          709     5
##  9 06    California income      29454   109
## 10 06    California rent         1358     3
## # … with 94 more rows

us_rent_income %>%
  pivot_wider(
    names_from = variable,
    values_from = c(estimate, moe)
  )

## # A tibble: 52 × 6
##    GEOID NAME                 estimate_income estimate_rent moe_income moe_rent
##    <chr> <chr>                          <dbl>         <dbl>      <dbl>    <dbl>
##  1 01    Alabama                        24476           747        136        3
##  2 02    Alaska                         32940          1200        508       13
##  3 04    Arizona                        27517           972        148        4
##  4 05    Arkansas                       23789           709        165        5
##  5 06    California                     29454          1358        109        3
##  6 08    Colorado                       32401          1125        109        5
##  7 09    Connecticut                    35326          1123        195        5
##  8 10    Delaware                       31560          1076        247       10
##  9 11    District of Columbia           43198          1424        681       17
## 10 12    Florida                        25952          1077         70        3
## # … with 42 more rows
…
relig_income %>%
  pivot_longer(!religion, names_to = "income", values_to = "count")

## # A tibble: 180 × 3
##    religion income             count
##    <chr>    <chr>              <dbl>
##  1 Agnostic <$10k                 27
##  2 Agnostic $10-20k               34
##  3 Agnostic $20-30k               60
##  4 Agnostic $30-40k               81
##  5 Agnostic $40-50k               76
##  6 Agnostic $50-75k              137
##  7 Agnostic $75-100k             122
##  8 Agnostic $100-150k            109
##  9 Agnostic >150k                 84
## 10 Agnostic Don't know/refused    96
## # … with 170 more rows

billboard %>%
  pivot_longer(
    cols = starts_with("wk"), # or wk1:wkN
    names_to = "week",
    names_prefix = "wk", # A regular expression used to remove matching text from the start of each variable name
    names_transform = list(week = as.integer),  # convert a character variable called week to an integer
    values_to = "rank",
    values_drop_na = TRUE
  )

## # A tibble: 5,307 × 5
##    artist  track                   date.entered  week  rank
##    <chr>   <chr>                   <date>       <int> <dbl>
##  1 2 Pac   Baby Don't Cry (Keep... 2000-02-26       1    87
##  2 2 Pac   Baby Don't Cry (Keep... 2000-02-26       2    82
##  3 2 Pac   Baby Don't Cry (Keep... 2000-02-26       3    72
##  4 2 Pac   Baby Don't Cry (Keep... 2000-02-26       4    77
##  5 2 Pac   Baby Don't Cry (Keep... 2000-02-26       5    87
##  6 2 Pac   Baby Don't Cry (Keep... 2000-02-26       6    94
##  7 2 Pac   Baby Don't Cry (Keep... 2000-02-26       7    99
##  8 2Ge+her The Hardest Part Of ... 2000-09-02       1    91
##  9 2Ge+her The Hardest Part Of ... 2000-09-02       2    87
## 10 2Ge+her The Hardest Part Of ... 2000-09-02       3    92
## # … with 5,297 more rows
…
expand_grid(x = 1:3, y = 1:2)

## # A tibble: 6 × 2
##       x     y
##   <int> <int>
## 1     1     1
## 2     1     2
## 3     2     1
## 4     2     2
## 5     3     1
## 6     3     2

expand_grid(l1 = letters, l2 = LETTERS)

## # A tibble: 676 × 2
##    l1    l2   
##    <chr> <chr>
##  1 a     A    
##  2 a     B    
##  3 a     C    
##  4 a     D    
##  5 a     E    
##  6 a     F    
##  7 a     G    
##  8 a     H    
##  9 a     I    
## 10 a     J    
## # … with 666 more rows
…
